…
{% endif %} 

6

    Number of Customers wrt geography hierarchy

    Order by number_of_customers

┌─────────┬──────────┬───────────────┬─────────────────────┐
│ Country │  State   │     City      │ number_of_customers │
│ varchar │ varchar  │    varchar    │        int64        │
├─────────┼──────────┼───────────────┼─────────────────────┤
│ Canada  │ BC       │ Shawnee       │                 111 │
│ USA     │ CA       │ Downey        │                 110 │
│ USA     │ OR       │ Lebanon       │                 108 │
│ USA     │ CA       │ Lemon Grove   │                 107 │
│ USA     │ CA       │ Concord       │                 106 │
│ Mexico  │ Guerrero │ Acapulco      │                 106 │
│ USA     │ CA       │ Pomona        │                 106 │
│ USA     │ WA       │ Burien        │                 106 │
│ Canada  │ BC       │ Langford      │                 105 │
│ USA     │ OR       │ Lake Oswego   │                 104 │
│  ·      │ ·        │      ·        │                   · │
│  ·      │ ·        │      ·        │                   · │
│  ·      │ ·        │      ·        │                   · │
│ USA     │ CA       │ Mill Valley   │                  85 │
│ USA     │ WA       │ Spokane       │                  85 │
│ USA     │ OR       │ Albany        │                  84 │
│ USA     │ CA       │ Colma         │                  84 │
│ USA     │ CA       │ Redwood City  │                  84 │
│ USA     │ CA       │ Lakewood      │                  82 │
│ Mexico  │ Sinaloa  │ La Cruz       │                  78 │
│ USA     │ CA       │ Fremont       │                  75 │
│ Mexico  │ DF       │ Santa Fe      │                  51 │
│ USA     │ CA       │ San Francisco │                  47 │
├─────────┴──────────┴───────────────┴─────────────────────┤
│ 109 rows (20 shown)                            4 columns │
└──────────────────────────────────────────────────────────┘
…
