…
Expected Contents in DWH

DimCurrency

sql = """
select * from DimCurrency 
order by CurrencyKey;
"""
print(con.sql(sql))

┌─────────────┬───────────────────────────────┐
│ CurrencyKey │         CurrencyName          │
│    int32    │            varchar            │
├─────────────┼───────────────────────────────┤
│           1 │ Emirati Dirham                │
│           2 │ Afghani                       │
│           3 │ Lek                           │
│           4 │ Armenian Dram                 │
│           5 │ Netherlands Antillian Guilder │
│           6 │ Kwanza                        │
│           7 │ Argentine Peso                │
│           8 │ Shilling                      │
│           9 │ Australian Dollar             │
│          10 │ Aruban Guilder                │
│           · │      ·                        │
│           · │      ·                        │
│           · │      ·                        │
│          96 │ Turkish Lira                  │
│          97 │ Trinidad and Tobago Dollar    │
│          98 │ New Taiwan Dollar             │
│          99 │ US Dollar                     │
│         100 │ Uruguayan Peso                │
│         101 │ Bolivar                       │
│         102 │ Dong                          │
│         103 │ CFA Franc BCEAO               │
│         104 │ Rand                          │
│         105 │ Zimbabwe Dollar               │
├─────────────┴───────────────────────────────┤
│ 105 rows (20 shown)               2 columns │
└─────────────────────────────────────────────┘

DimProduct

sql = """
select * from DimProduct  
where not EnglishProductSubcategoryName is null 
order by ProductKey;
"""
ddbu.sql_print(con, sql)

┌────────────┬────────────────────────────┬───────────────────────────────┬────────────────────────────┐
│ ProductKey │     EnglishProductName     │ EnglishProductSubcategoryName │ EnglishProductCategoryName │
│   int32    │          varchar           │            varchar            │          varchar           │
├────────────┼────────────────────────────┼───────────────────────────────┼────────────────────────────┤
│        680 │ HL Road Frame - Black, 58  │ Road Frames                   │ Components                 │
│        706 │ HL Road Frame - Red, 58    │ Road Frames                   │ Components                 │
│        707 │ Sport-100 Helmet, Red      │ Helmets                       │ Accessories                │
│        708 │ Sport-100 Helmet, Black    │ Helmets                       │ Accessories                │
│        709 │ Mountain Bike Socks, M     │ Socks                         │ Clothing                   │
│        710 │ Mountain Bike Socks, L     │ Socks                         │ Clothing                   │
│        711 │ Sport-100 Helmet, Blue     │ Helmets                       │ Accessories                │
│        712 │ AWC Logo Cap               │ Caps                          │ Clothing                   │
│        713 │ Long-Sleeve Logo Jersey, S │ Jerseys                       │ Clothing                   │
│        714 │ Long-Sleeve Logo Jersey, M │ Jerseys                       │ Clothing                   │
│         ·  │           ·                │    ·                          │   ·                        │
│         ·  │           ·                │    ·                          │   ·                        │
│         ·  │           ·                │    ·                          │   ·                        │
│        990 │ Mountain-500 Black, 42     │ Mountain Bikes                │ Bikes                      │
│        991 │ Mountain-500 Black, 44     │ Mountain Bikes                │ Bikes                      │
│        992 │ Mountain-500 Black, 48     │ Mountain Bikes                │ Bikes                      │
│        993 │ Mountain-500 Black, 52     │ Mountain Bikes                │ Bikes                      │
│        994 │ LL Bottom Bracket          │ Bottom Brackets               │ Components                 │
│        995 │ ML Bottom Bracket          │ Bottom Brackets               │ Components                 │
│        996 │ HL Bottom Bracket          │ Bottom Brackets               │ Components                 │
│        997 │ Road-750 Black, 44         │ Road Bikes                    │ Bikes                      │
│        998 │ Road-750 Black, 48         │ Road Bikes                    │ Bikes                      │
│        999 │ Road-750 Black, 52         │ Road Bikes                    │ Bikes                      │
├────────────┴────────────────────────────┴───────────────────────────────┴────────────────────────────┤
│ 295 rows (20 shown)                                                                        4 columns │
└──────────────────────────────────────────────────────────────────────────────────────────────────────┘
…
FactProductInventory

sql = """
select * from FactProductInventory 
order by ProductKey;
"""
ddbu.sql_print(con, sql)

┌────────────┬──────────┬──────────┐
│ ProductKey │ DateKey  │ Quantity │
│   int32    │  int32   │  int32   │
├────────────┼──────────┼──────────┤
│          1 │ 20250807 │     1085 │
│          2 │ 20250807 │     1109 │
│          3 │ 20190331 │     1352 │
│          4 │ 20250807 │     1322 │
│        316 │ 20190331 │     1361 │
│        317 │ 20250808 │      593 │
│        318 │ 20250808 │      439 │
│        319 │ 20250808 │      797 │
│        320 │ 20250808 │     1136 │
│        321 │ 20250808 │     1750 │
│         ·  │     ·    │       ·  │
│         ·  │     ·    │       ·  │
│         ·  │     ·    │       ·  │
│        990 │ 20240429 │      153 │
│        991 │ 20240429 │      154 │
│        992 │ 20240429 │      164 │
│        993 │ 20240429 │      153 │
│        994 │ 20240429 │      814 │
│        995 │ 20240429 │      816 │
│        996 │ 20240429 │      970 │
│        997 │ 20240429 │      153 │
│        998 │ 20240429 │      155 │
│        999 │ 20240429 │      194 │
├────────────┴──────────┴──────────┤
│ 432 rows (20 shown)    3 columns │
└──────────────────────────────────┘
…
