Turn the following question into SQL
- Products and number of their corresponding inventory facts. Only products with more than 3000 inventory  facts should be shown
- Output Product, NoOfInventoryFacts
- Sorted by Product

Expected result
```
┌────────────────────────────────┬────────────────────┐
│            Product             │ NoOfInventoryFacts │
│            varchar             │       int64        │
├────────────────────────────────┼────────────────────┤
│ AWC Logo Cap                   │               3843 │
│ HL Mountain Frame - Black, 38  │               3843 │
│ HL Mountain Frame - Black, 42  │               3843 │
│ HL Mountain Frame - Black, 46  │               3843 │
│ HL Mountain Frame - Silver, 38 │               3843 │
│ HL Mountain Frame - Silver, 42 │               3843 │
│ HL Mountain Frame - Silver, 46 │               3843 │
│ HL Road Frame - Red, 44        │               3843 │
│ HL Road Frame - Red, 48        │               3843 │
│ HL Road Frame - Red, 52        │               3843 │
│            ·                   │                 ·  │
│            ·                   │                 ·  │
│            ·                   │                 ·  │
│ LL Road Frame - Black, 58      │               3843 │
│ LL Road Frame - Black, 60      │               3843 │
│ LL Road Frame - Black, 62      │               3843 │
│ Long-Sleeve Logo Jersey, L     │               3843 │
│ Long-Sleeve Logo Jersey, M     │               3843 │
│ Long-Sleeve Logo Jersey, S     │               3843 │
│ Long-Sleeve Logo Jersey, XL    │               3843 │
│ Sport-100 Helmet, Black        │               3843 │
│ Sport-100 Helmet, Blue         │               3843 │
│ Sport-100 Helmet, Red          │               3843 │
├────────────────────────────────┴────────────────────┤
│ 25 rows (20 shown)                        2 columns │
└─────────────────────────────────────────────────────┘
```
